1 10 20
100 200 125
201 210 89
900 1000 174
10 1 0
1 1 1
15 166 122
150 15 0
345 15 0
745 333 0
1666 7777 262
35 2643 209
3627 755 0
34 266 128
27 577 144
289 99999 351
15 2069 182
35 169 122
134 902 179
46 2423 183
64 46324 324
266 34666 311
345 262 0
2777 274 0
2346 258 0
52 872 179
315 683 145
1467 8345 262
256 2865 209
124 1777 182
34 26357 282
36 14677 276
123 2355 183
1567 3144 217
46 277 128
245 734 171
46 2466 209
246 248 110
23 272 128
24 7354 262
15 722 171
12 543 144
45 325 131
16 2656 209
15 745 171
1345 233 0
517 2457 183
123 5312 238
72 4326 238
132 623 144
46 376 144
46 34 0
824 6436 262
243 3478 217
325 3463 217
13 6733 262
345 666 145
32 222 125
23 2664 209
327 7777 262
23 7273 262
235 7773 262
345 35773 324
35 167717 383
4562 37666 324
2311 32561 308
63 2666 209
132 16662 276
1334 3278 217
1337 420 0
1337 69 0
420 69 0
69 420 144
111 1111 179
1111 111 0
1 11 20
1 111 119
1 1111 179
11 1111 179
111 11111 268
11111 111 0
111 111 70
3529 2355 0
4423 256 0
666 6666 262
6 66 113
66 666 145
6666 666 0
66666 66 0
351 33 0
2356 3 0
3417 346 0
35 34772 311
1359 29 0
235 66 0
1 3 8
35 76 116
329 47 0
12 3 0
2 31 112
