1 10 20
100 200 125
201 210 89
900 1000 174
1001 1100 169
1100 1200 182
1201 1210 71
9000 10000 260
10100 10200 180
10900 11000 268
30000 5000 308
1 999999 525
10 1 20
1 1 1
999999 999999 259
999999 1 525
100 100 26
89 88 31
45 48 105
33 37 27
11 23 21
2345 123 183
999998 999999 259
1 2 2
2 1 2
2 90000 351
4 4 3
5 5 6
1001 2000 182
2001 3000 217
3001 4000 238
4001 5000 215
5001 6000 236
6001 7000 262
7001 8000 252
8001 9000 247
9001 10000 260
10001 11000 268
11001 12000 250
12000 20000 279
10000 20000 279
69 420 144
20001 30000 308
30001 40000 324
40001 50000 314
50001 60000 340
60001 70000 335
70001 80000 351
80001 90000 333
90001 100000 333
100000 200000 383
22 220 125
200000 30000 383
1 20 21
1 500 144
500 1 144
1 1000 179
1000 1 179
1 100000 351
420 69 144
1776 2022 175
2020 1 182
10 20 21
20 30 112
21 30 112
30 40 107
31 40 107
40 50 110
41 50 110
50 60 113
51 60 113
60 70 108
61 70 108
70 80 116
71 80 116
80 90 111
81 90 111
90 100 119
91 100 119
100 91 119
101 100 26
20 10 21
30 20 112
50 30 110
51 30 110
101 1 119
3 1 8
1000 1 179
10000 1 262
100000 1 351
987654 1 525
2 10000 262
3 20000 279
64 25 113
37 49 110
2 3 8
7 11 20
90 900 179
67 76 116
99 1 119
555 600 119
100 800 171
43110 30417 324
