.......................
----------------------------------------------------------------------
Ran 23 tests in 0.012s

OK
Name             Stmts   Miss Branch BrPart  Cover   Missing
------------------------------------------------------------
Collatz.py          40      0     18      0   100%
TestCollatz.py      98      0      2      0   100%
------------------------------------------------------------
TOTAL              138      0     20      0   100%
