.......
----------------------------------------------------------------------
Ran 7 tests in 0.042s

OK
Name             Stmts   Miss Branch BrPart  Cover   Missing
------------------------------------------------------------
Collatz.py          27      0     10      0   100%
TestCollatz.py      32      0      2      0   100%
------------------------------------------------------------
TOTAL               59      0     12      0   100%


................
----------------------------------------------------------------------
Ran 20 tests in 0.088s

OK
Name             Stmts   Miss Branch BrPart  Cover   Missing
------------------------------------------------------------
Collatz.py          29      0     10      0   100%
TestCollatz.py      81      0      2      0   100%
------------------------------------------------------------
TOTAL              110      0     12      0   100%


....................
----------------------------------------------------------------------
Ran 20 tests in 0.073s

OK
Name             Stmts   Miss Branch BrPart  Cover   Missing
------------------------------------------------------------
Collatz.py          30      0     12      0   100%
TestCollatz.py      82      0      2      0   100%
------------------------------------------------------------
TOTAL              112      0     14      0   100%

.....................
----------------------------------------------------------------------
Ran 21 tests in 10.913s

OK
Name             Stmts   Miss Branch BrPart  Cover   Missing
------------------------------------------------------------
Collatz.py          43      0     16      0   100%
TestCollatz.py      87      0      2      0   100%
------------------------------------------------------------
TOTAL              130      0     18      0   100%


................
----------------------------------------------------------------------
Ran 16 tests in 5.201s

OK
Name             Stmts   Miss Branch BrPart  Cover   Missing
------------------------------------------------------------
Collatz.py          43      0     16      0   100%
TestCollatz.py      65      0      2      0   100%
------------------------------------------------------------
TOTAL              108      0     18      0   100%


.................
----------------------------------------------------------------------
Ran 17 tests in 0.204s

Name             Stmts   Miss Branch BrPart  Cover   Missing
------------------------------------------------------------
Collatz.py          71      3     36      5    91%   73->75, 75->78, 80-82, 84->90, 90->97
TestCollatz.py      71      2      2      0    97%   102-103
------------------------------------------------------------
TOTAL              142      5     38      5    93%


..................
----------------------------------------------------------------------
Ran 18 tests in 0.145s

OK
Name             Stmts   Miss Branch BrPart  Cover   Missing
------------------------------------------------------------
Collatz.py          71      0     36      3    97%   75->78, 81->79, 90->97
TestCollatz.py      71      0      2      0   100%
------------------------------------------------------------
TOTAL              142      0     38      3    98%


....................
----------------------------------------------------------------------
Ran 20 tests in 0.223s

OK
Name             Stmts   Miss Branch BrPart  Cover   Missing
------------------------------------------------------------
Collatz.py          64      0     26      1    99%   88->91
TestCollatz.py      78      0      2      0   100%
------------------------------------------------------------
TOTAL              142      0     28      1    99%


......................
----------------------------------------------------------------------
Ran 22 tests in 0.384s

OK
Name             Stmts   Miss Branch BrPart  Cover   Missing
------------------------------------------------------------
Collatz.py          64      0     26      0   100%
TestCollatz.py      84      0      2      0   100%
------------------------------------------------------------
TOTAL              148      0     28      0   100%
