................
----------------------------------------------------------------------
Ran 16 tests in 5.745s

OK
Name             Stmts   Miss Branch BrPart  Cover   Missing
------------------------------------------------------------
Collatz.py          35      0     12      0   100%
TestCollatz.py      69      0      2      0   100%
------------------------------------------------------------
TOTAL              104      0     14      0   100%
