.................
----------------------------------------------------------------------
Ran 17 tests in 0.028s

OK
Name             Stmts   Miss Branch BrPart  Cover   Missing
------------------------------------------------------------
Collatz.py          32      0     12      0   100%
TestCollatz.py      75      0      0      0   100%
------------------------------------------------------------
TOTAL              107      0     12      0   100%
